\relax 
\providecommand\hyper@newdestlabel[2]{}
\providecommand\HyperFirstAtBeginDocument{\AtBeginDocument}
\HyperFirstAtBeginDocument{\ifx\hyper@anchor\@undefined
\global\let\oldcontentsline\contentsline
\gdef\contentsline#1#2#3#4{\oldcontentsline{#1}{#2}{#3}}
\global\let\oldnewlabel\newlabel
\gdef\newlabel#1#2{\newlabelxx{#1}#2}
\gdef\newlabelxx#1#2#3#4#5#6{\oldnewlabel{#1}{{#2}{#3}}}
\AtEndDocument{\ifx\hyper@anchor\@undefined
\let\contentsline\oldcontentsline
\let\newlabel\oldnewlabel
\fi}
\fi}
\global\let\hyper@last\relax 
\gdef\HyperFirstAtBeginDocument#1{#1}
\providecommand*\HyPL@Entry[1]{}
\HyPL@Entry{0<</S/r>>}
\HyPL@Entry{1<</S/r>>}
\HyPL@Entry{2<</S/D>>}
\@writefile{toc}{\contentsline {chapter}{\numberline {1}Introduction}{1}{chapter.1}\protected@file@percent }
\@writefile{lof}{\addvspace {10\p@ }}
\@writefile{lot}{\addvspace {10\p@ }}
\@writefile{toc}{\contentsline {chapter}{\numberline {2}Installation and Startup}{3}{chapter.2}\protected@file@percent }
\@writefile{lof}{\addvspace {10\p@ }}
\@writefile{lot}{\addvspace {10\p@ }}
\@writefile{toc}{\contentsline {section}{\numberline {2.1}installation}{3}{section.2.1}\protected@file@percent }
\@writefile{toc}{\contentsline {section}{\numberline {2.2}Startup}{7}{section.2.2}\protected@file@percent }
\@writefile{toc}{\contentsline {chapter}{\numberline {3}Hardware and Environment setup}{11}{chapter.3}\protected@file@percent }
\@writefile{lof}{\addvspace {10\p@ }}
\@writefile{lot}{\addvspace {10\p@ }}
\@writefile{toc}{\contentsline {section}{\numberline {3.1}Hardware requirement}{11}{section.3.1}\protected@file@percent }
\@writefile{toc}{\contentsline {section}{\numberline {3.2}Lines connection and environment setup}{12}{section.3.2}\protected@file@percent }
\@writefile{toc}{\contentsline {subsection}{\numberline {3.2.1}NE speaker position}{13}{subsection.3.2.1}\protected@file@percent }
\@writefile{toc}{\contentsline {subsection}{\numberline {3.2.2}Standard microphone position}{14}{subsection.3.2.2}\protected@file@percent }
\@writefile{toc}{\contentsline {subsection}{\numberline {3.2.3}Noise speaker position}{14}{subsection.3.2.3}\protected@file@percent }
\@writefile{toc}{\contentsline {section}{\numberline {3.3}Driver setting}{15}{section.3.3}\protected@file@percent }
\@writefile{toc}{\contentsline {chapter}{\numberline {4}Menu}{18}{chapter.4}\protected@file@percent }
\@writefile{lof}{\addvspace {10\p@ }}
\@writefile{lot}{\addvspace {10\p@ }}
\@writefile{toc}{\contentsline {section}{\numberline {4.1}Database}{18}{section.4.1}\protected@file@percent }
\@writefile{toc}{\contentsline {section}{\numberline {4.2}License}{19}{section.4.2}\protected@file@percent }
\@writefile{toc}{\contentsline {section}{\numberline {4.3}Option}{20}{section.4.3}\protected@file@percent }
\@writefile{toc}{\contentsline {section}{\numberline {4.4}Help}{20}{section.4.4}\protected@file@percent }
\@writefile{toc}{\contentsline {chapter}{\numberline {5}System Setting}{22}{chapter.5}\protected@file@percent }
\@writefile{lof}{\addvspace {10\p@ }}
\@writefile{lot}{\addvspace {10\p@ }}
\@writefile{toc}{\contentsline {section}{\numberline {5.1}Recording setting}{22}{section.5.1}\protected@file@percent }
\@writefile{toc}{\contentsline {section}{\numberline {5.2}Hardware setting}{24}{section.5.2}\protected@file@percent }
\@writefile{toc}{\contentsline {section}{\numberline {5.3}AVN setting}{25}{section.5.3}\protected@file@percent }
\@writefile{toc}{\contentsline {section}{\numberline {5.4}Selftest}{26}{section.5.4}\protected@file@percent }
\@writefile{toc}{\contentsline {section}{\numberline {5.5}Calibration}{27}{section.5.5}\protected@file@percent }
\@writefile{toc}{\contentsline {chapter}{\numberline {6}Scenario Mangement}{31}{chapter.6}\protected@file@percent }
\@writefile{lof}{\addvspace {10\p@ }}
\@writefile{lot}{\addvspace {10\p@ }}
\@writefile{toc}{\contentsline {section}{\numberline {6.1}Discrete original vector requirements}{31}{section.6.1}\protected@file@percent }
\@writefile{toc}{\contentsline {section}{\numberline {6.2}Vector}{33}{section.6.2}\protected@file@percent }
\@writefile{toc}{\contentsline {section}{\numberline {6.3}Scenario}{35}{section.6.3}\protected@file@percent }
\@writefile{toc}{\contentsline {section}{\numberline {6.4}Scenario Group}{37}{section.6.4}\protected@file@percent }
\@writefile{toc}{\contentsline {chapter}{\numberline {7}Recording}{38}{chapter.7}\protected@file@percent }
\@writefile{lof}{\addvspace {10\p@ }}
\@writefile{lot}{\addvspace {10\p@ }}
